"Date"       ,"Time"     ,"TimeZone" ,"Name"                 ,"Type"                                        ,"Status"                   ,"Currency"  ,"Gross"   ,"Fee"    ,"Net"     ,"From Email Address"        ,"To Email Address"                          ,"Transaction ID"          ,"Shipping Address"                          ,"Address Status"        ,"Item Title"                                                                                           ,"Item ID"                    ,"Shipping and Handling Amount"                                                      ,"Insurance Amount" ,"Sales Tax"     ,"Option 1 Name"                                        ,"Option 1 Value"                                                 ,"Option 2 Name"                            ,"Option 2 Value"                                                                    ,"Reference Txn ID"      ,"Invoice Number" ,"Custom Number"     ,"Quantity"            ,"Receipt ID"                 ,"Balance" ,"Address Line 1"   ,"Address Line 2/District/Neighborhood" ,"Town/City"                  ,"State/Province/Region/County/Territory/Prefecture/Republic" ,"Zip/Postal Code"            ,"Country"          ,"Contact Phone Number"        ,"Subject"                                                                                              ,"Note"                                               ,"Country Code"                                                                      ,"Balance Impact"                                                                    
"06/02/2018" ,"15:04:20" ,"EDT"      ,"christian hernandez"  ,"eBay Auction Payment"                        ,"Completed"                ,"USD"       ,"35.00"   ,"-1.32"  ,"33.68"   ,"To get contact details     , please visit your Order details on MyeBay" ,"arf4188@gmail.com"       ,"98T6793373171735T"                         ,"chris landron          , urb. Monte Carlos Calle C 105                                                                         , vega baja                   , puerto rico                                                                        , 00693             , Puerto Rico"   ,"Confirmed"                                            ,"Amazon Fire TV Stick (First Generation                          , Model W87CUN) Streaming Media Player"     ,"263718659769"                                                                      ,"4.00"                  ,"0.00"           ,"0.00"              ,""                    ,""                           ,""        ,""                 ,""                                     ,""                           ,"EBAY_EMSCX0000808628085010"                                 ,"1"                          ,""                 ,"33.68"                       ,"urb. Monte Carlos Calle C 105"                                                                        ,""                                                   ,"vega baja"                                                                         ,"puerto rico"                                                                       
"06/02/2018" ,"17:05:21" ,"EDT"      ,"eBay Inc Shipping"    ,"PreApproved Payment Bill User Payment"       ,"Completed"                ,"USD"       ,"-2.92"   ,"0.00"   ,"-2.92"   ,"arf4188@gmail.com"         ,"us-ebay-shiplabels11@ebay.com"             ,"4U0985826U520115G"       ,""                                          ,"Non-Confirmed"         ,"ShipSvc:USPS First Class Package                                                                      , Trk#:9400109699939009788435 , Postage:$2.92                                                                      , Ins:$0.00"        ,""              ,"0.00"                                                 ,""                                                               ,"0.00"                                     ,""                                                                                  ,""                      ,""               ,""                  ,"B-5PL26440A3749932A" ,"3791850428"                 ,""        ,"1"                ,""                                     ,"30.76"                      ,""                                                           ,""                           ,""                 ,""                            ,""                                                                                                     ,""                                                   ,"617-756-7842"                                                                      ,"ShipSvc:USPS First Class Package                                                   
"06/02/2018" ,"21:29:15" ,"EDT"      ,"Gay Tieken"           ,"eBay Auction Payment"                        ,"Completed"                ,"USD"       ,"1.99"    ,"-0.36"  ,"1.63"    ,"To get contact details     , please visit your Order details on MyeBay" ,"arf4188@gmail.com"       ,"61B777284L329425N"                         ,"Helping Hands Handyman , 4106 Tarpon Ln                                                                                        , Grand Prairie               , TX                                                                                 , 75052-4260        , United States" ,"Confirmed"                                            ,"Spigen Clear Case with Kickstand for Samsung Galaxy S8+ (PLUS)" ,"263720990638"                             ,"1.00"                                                                              ,"0.00"                  ,"0.00"           ,""                  ,""                    ,""                           ,""        ,""                 ,""                                     ,"EBAY_EMSCX0000806363024715" ,"1"                                                          ,""                           ,"32.39"            ,"4106 Tarpon Ln"              ,""                                                                                                     ,"Grand Prairie"                                      ,"TX"                                                                                ,"75052-4260"                                                                        
"06/02/2018" ,"21:59:24" ,"EDT"      ,"eBay Inc Shipping"    ,"PreApproved Payment Bill User Payment"       ,"Completed"                ,"USD"       ,"-2.66"   ,"0.00"   ,"-2.66"   ,"arf4188@gmail.com"         ,"us-ebay-shiplabels15@ebay.com"             ,"81U90296YM321751M"       ,""                                          ,"Non-Confirmed"         ,"Shipping label printed on eBay for shipping carrier USPS with tracking Number 9400109699939010127971" ,""                           ,"0.00"                                                                              ,""                 ,"0.00"          ,""                                                     ,""                                                               ,""                                         ,""                                                                                  ,"B-5PL26440A3749932A"   ,"3791933168"     ,""                  ,"1"                   ,""                           ,"29.73"   ,""                 ,""                                     ,""                           ,""                                                           ,""                           ,""                 ,"617-756-7842"                ,"Shipping label printed on eBay for shipping carrier USPS with tracking Number 9400109699939010127971" ,""                                                   ,""                                                                                  ,"Debit"                                                                             
"06/03/2018" ,"12:20:47" ,"EDT"      ,"Sara Burrows"         ,"Mobile Payment"                              ,"Completed"                ,"USD"       ,"50.00"   ,"0.00"   ,"50.00"   ,"saraanneburrows@yahoo.com" ,"arf4188@gmail.com"                         ,"2E617274VR982470H"       ,""                                          ,"Non-Confirmed"         ,""                                                                                                     ,""                           ,""                                                                                  ,""                 ,""              ,""                                                     ,""                                                               ,""                                         ,""                                                                                  ,""                      ,""               ,""                  ,""                    ,""                           ,"79.73"   ,""                 ,""                                     ,""                           ,""                                                           ,""                           ,""                 ,""                            ,""                                                                                                     ,"AWS security certificate"                           ,""                                                                                  ,"Credit"                                                                            
"06/03/2018" ,"16:57:22" ,"EDT"      ,"Robin Rutter-Baumann" ,"eBay Auction Payment"                        ,"Completed"                ,"USD"       ,"1        ,420.95"  ,"-62.82"  ,"1                          ,358.13"                                     ,"To get contact details   , please visit your Order details on MyeBay" ,"arf4188@gmail.com"     ,"82G61662NG659544F"                                                                                    ,"Robin Rutter-Baumann        , 1850 Airport Exchange Blvd #200                                                    , Erlanger          , KY             , 41025                                                 , United States"                                                  ,"Confirmed"                                ,"ASUS ZenBook Pro UX501VW 15.6"" Laptop Intel Core i7 CPU 16 GB RAM 500 GB Storage" ,"263735045026"          ,"20.95"          ,"0.00"              ,"0.00"                ,""                           ,""        ,""                 ,""                                     ,""                           ,""                                                           ,"EBAY_EMSCX0000807162465111" ,"1"                ,"5145384326862268"            ,"1                                                                                                     ,437.86"                                              ,"1850 Airport Exchange Blvd #200"                                                   ,""                                                                                  
"06/06/2018" ,"13:49:03" ,"EDT"      ,"Robin Rutter-Baumann" ,"Payment Refund"                              ,"Completed"                ,"USD"       ,"-1       ,420.95"  ,"62.52"   ,"-1                         ,358.43"                                     ,"arf4188@gmail.com"       ,"robin@mailtome.co.nz"                      ,"2LY81052PY511183V"     ,""                                                                                                     ,"Non-Confirmed"              ,"ASUS ZenBook Pro UX501VW 15.6"" Laptop Intel Core i7 CPU 16 GB RAM 500 GB Storage" ,"263735045026"     ,""              ,""                                                     ,"0.00"                                                           ,""                                         ,""                                                                                  ,""                      ,""               ,"82G61662NG659544F" ,"EBAY33206183081"     ,"EBAY_EMSCX0000807162465111" ,"1"       ,"5145384326862268" ,"79.43"                                ,""                           ,""                                                           ,""                           ,""                 ,""                            ,""                                                                                                     ,""                                                   ,"ASUS ZenBook Pro UX501VW 15.6"" Laptop Intel Core i7 CPU 16 GB RAM 500 GB Storage" ,""                                                                                  
"06/07/2018" ,"02:18:40" ,"EDT"      ,"Dick's Sporting Goods , Inc."                                        ,"Order"                    ,"Pending"   ,"USD"     ,"86.79"  ,""        ,""                          ,"paypal_dsg@dcsg.com"                       ,"arf4188@gmail.com"       ,"O-5XB019418T7099329"                       ,"Alex Ford              , 15 Windsor Rd                                                                                         , Somerville                  , MA                                                                                 , 02144             , United States" ,"Confirmed"                                            ,"Under Armour Men's Street Encounter IV Recovery Shoes"          ,"18356661                                  ,18232572                                                                            ,12856536                ,13702974         ,1"                  ,""                    ,""                           ,""        ,""                 ,""                                     ,""                           ,""                                                           ,""                           ,""                 ,"5283523183556967804020       ,10097436572                                                                                            ,dks_dsg                                              ,554277639474"                                                                       ,"1"                                                                                 
"06/07/2018" ,"02:18:46" ,"EDT"      ,"Dick's Sporting Goods , Inc."                                        ,"General Authorization"    ,"Pending"   ,"USD"     ,"-86.79" ,"0.00"    ,"-86.79"                    ,"arf4188@gmail.com"                         ,"paypal_dsg@dcsg.com"     ,"6789613480956682J"                         ,"15 Windsor Rd          , Somerville                                                                                            , MA                          , 02144                                                                              , United States"    ,"Confirmed"     ,"Under Armour Men's Street Encounter IV Recovery Shoes , Fitness Gear Travel Massager                                    , Intex Mega Chill Inflatable 24 Can Cooler , Intex River Run 1 Person River Tube                                                , Promotions & Discount" ,"18356661        , 18232572           , 12856536             , 13702974                    , 1"       ,"5.99"             ,""                                     ,"2.84"                       ,""                                                           ,""                           ,""                 ,""                            ,"O-5XB019418T7099329"                                                                                  ,""                                                   ,"5283523183556967804020                                                             ,10097436572                                                                         
"06/07/2018" ,"15:09:10" ,"EDT"      ,""                     ,"General Credit Card Deposit"                 ,"Completed"                ,"USD"       ,"3.26"    ,"0.00"   ,"3.26"    ,""                          ,"arf4188@gmail.com"                         ,"0MY1605820531141K"       ,""                                          ,""                      ,""                                                                                                     ,""                           ,""                                                                                  ,""                 ,""              ,""                                                     ,""                                                               ,""                                         ,""                                                                                  ,"78726920SX483350H"     ,""               ,""                  ,""                    ,""                           ,"82.69"   ,""                 ,""                                     ,""                           ,""                                                           ,""                           ,""                 ,""                            ,""                                                                                                     ,""                                                   ,""                                                                                  ,"Credit"                                                                            
"06/07/2018" ,"15:09:10" ,"EDT"      ,"Dick's Sporting Goods , Inc."                                        ,"Express Checkout Payment" ,"Completed" ,"USD"     ,"-3.26"  ,"0.00"    ,"-3.26"                     ,"arf4188@gmail.com"                         ,"paypal_dsg@dcsg.com"     ,"78726920SX483350H"                         ,"15 Windsor Rd          , Somerville                                                                                            , MA                          , 02144                                                                              , United States"    ,"Confirmed"     ,"Under Armour Men's Street Encounter IV Recovery Shoes , Fitness Gear Travel Massager                                    , Intex Mega Chill Inflatable 24 Can Cooler , Intex River Run 1 Person River Tube                                                , Promotions & Discount" ,"18356661        , 18232572           , 12856536             , 13702974                    , 1"       ,"5.99"             ,""                                     ,"2.84"                       ,""                                                           ,""                           ,""                 ,""                            ,"6789613480956682J"                                                                                    ,""                                                   ,"5283523183556967804020                                                             ,10097436572                                                                         
"06/07/2018" ,"18:22:34" ,"EDT"      ,""                     ,"General Credit Card Deposit"                 ,"Completed"                ,"USD"       ,"45.01"   ,"0.00"   ,"45.01"   ,""                          ,"arf4188@gmail.com"                         ,"75S45285FE788040S"       ,""                                          ,""                      ,""                                                                                                     ,""                           ,""                                                                                  ,""                 ,""              ,""                                                     ,""                                                               ,""                                         ,""                                                                                  ,"2TX20566HV8823823"     ,""               ,""                  ,""                    ,""                           ,"124.44"  ,""                 ,""                                     ,""                           ,""                                                           ,""                           ,""                 ,""                            ,""                                                                                                     ,""                                                   ,""                                                                                  ,"Credit"                                                                            
"06/07/2018" ,"18:22:34" ,"EDT"      ,"Dick's Sporting Goods , Inc."                                        ,"Express Checkout Payment" ,"Completed" ,"USD"     ,"-45.01" ,"0.00"    ,"-45.01"                    ,"arf4188@gmail.com"                         ,"paypal_dsg@dcsg.com"     ,"2TX20566HV8823823"                         ,"15 Windsor Rd          , Somerville                                                                                            , MA                          , 02144                                                                              , United States"    ,"Confirmed"     ,"Under Armour Men's Street Encounter IV Recovery Shoes , Fitness Gear Travel Massager                                    , Intex Mega Chill Inflatable 24 Can Cooler , Intex River Run 1 Person River Tube                                                , Promotions & Discount" ,"18356661        , 18232572           , 12856536             , 13702974                    , 1"       ,"5.99"             ,""                                     ,"2.84"                       ,""                                                           ,""                           ,""                 ,""                            ,"6789613480956682J"                                                                                    ,""                                                   ,"5283523183556967804020                                                             ,10097436572                                                                         
"06/07/2018" ,"21:25:03" ,"EDT"      ,""                     ,"General Credit Card Deposit"                 ,"Completed"                ,"USD"       ,"38.52"   ,"0.00"   ,"38.52"   ,""                          ,"arf4188@gmail.com"                         ,"0TT120505G3457255"       ,""                                          ,""                      ,""                                                                                                     ,""                           ,""                                                                                  ,""                 ,""              ,""                                                     ,""                                                               ,""                                         ,""                                                                                  ,"7PX79295S6852403N"     ,""               ,""                  ,""                    ,""                           ,"117.95"  ,""                 ,""                                     ,""                           ,""                                                           ,""                           ,""                 ,""                            ,""                                                                                                     ,""                                                   ,""                                                                                  ,"Credit"                                                                            
"06/07/2018" ,"21:25:03" ,"EDT"      ,"Dick's Sporting Goods , Inc."                                        ,"Express Checkout Payment" ,"Completed" ,"USD"     ,"-38.52" ,"0.00"    ,"-38.52"                    ,"arf4188@gmail.com"                         ,"paypal_dsg@dcsg.com"     ,"7PX79295S6852403N"                         ,"15 Windsor Rd          , Somerville                                                                                            , MA                          , 02144                                                                              , United States"    ,"Confirmed"     ,"Under Armour Men's Street Encounter IV Recovery Shoes , Fitness Gear Travel Massager                                    , Intex Mega Chill Inflatable 24 Can Cooler , Intex River Run 1 Person River Tube                                                , Promotions & Discount" ,"18356661        , 18232572           , 12856536             , 13702974                    , 1"       ,"5.99"             ,""                                     ,"2.84"                       ,""                                                           ,""                           ,""                 ,""                            ,"6789613480956682J"                                                                                    ,""                                                   ,"5283523183556967804020                                                             ,10097436572                                                                         
"06/27/2018" ,"16:09:17" ,"EDT"      ,"The Fly Shop"         ,"eBay Auction Payment"                        ,"Completed"                ,"USD"       ,"1        ,213.50"  ,"-35.49"  ,"1                          ,178.01"                                     ,"To get contact details   , please visit your Order details on MyeBay" ,"arf4188@gmail.com"     ,"0W5946038K893723Y"                                                                                    ,"Joseph Taylor               , 425 S Yam Ave                                                                      , Galloway          , NJ             , 08205                                                 , United States"                                                  ,"Confirmed"                                ,"ASUS ZenBook Pro UX501VW 15.6"" Laptop Intel Core i7 CPU 16 GB RAM 500 GB Storage" ,"263781285148"          ,"13.50"          ,"0.00"              ,"0.00"                ,""                           ,""        ,""                 ,""                                     ,""                           ,""                                                           ,"EBAY_EMSCX0000810143954419" ,"1"                ,""                            ,"1                                                                                                     ,257.44"                                              ,"425 S Yam Ave"                                                                     ,""                                                                                  
"06/27/2018" ,"16:34:01" ,"EDT"      ,"PayPal"               ,"Hold on Balance for Dispute Investigation"   ,"Pending"                  ,"USD"       ,"-1       ,178.01"  ,"0.00"    ,"-1                         ,178.01"                                     ,"arf4188@gmail.com"       ,"uscs-taylor@hotmail.com"                   ,"6S794444YV591211D"     ,""                                                                                                     ,"Non-Confirmed"              ,"ASUS ZenBook Pro UX501VW 15.6"" Laptop Intel Core i7 CPU 16 GB RAM 500 GB Storage" ,"263781285148"     ,""              ,""                                                     ,"0.00"                                                           ,""                                         ,""                                                                                  ,""                      ,""               ,"0W5946038K893723Y" ,""                    ,"EBAY_EMSCX0000810143954419" ,"1"       ,""                 ,"79.43"                                ,""                           ,""                                                           ,""                           ,""                 ,""                            ,""                                                                                                     ,""                                                   ,"ASUS ZenBook Pro UX501VW 15.6"" Laptop Intel Core i7 CPU 16 GB RAM 500 GB Storage" ,""                                                                                  
"06/29/2018" ,"08:04:30" ,"EDT"      ,"Richard Droz"         ,"eBay Auction Payment"                        ,"Completed"                ,"USD"       ,"43.65"   ,"-1.57"  ,"42.08"   ,"To get contact details     , please visit your Order details on MyeBay" ,"arf4188@gmail.com"       ,"1DN300226R6031608"                         ,"Richard Droz           , Urb El Paraiso Calle Parana                                                                           , #1566 Apt # 6               , San Juan PR                                                                        , 00926             , Puerto Rico"   ,"Confirmed"                                            ,"Aqueon Large Aquarium Filters (21 filters)"                     ,"263776437851"                             ,"14.65"                                                                             ,"0.00"                  ,"0.00"           ,""                  ,""                    ,""                           ,""        ,""                 ,""                                     ,"EBAY_EMSCX0000811696645318" ,"1"                                                          ,""                           ,"121.51"           ,"Urb El Paraiso Calle Parana" ,"#1566 Apt # 6"                                                                                        ,"San Juan PR"                                        ,""                                                                                  ,"00926"                                                                             
"06/29/2018" ,"08:31:07" ,"EDT"      ,"eBay Inc Shipping"    ,"PreApproved Payment Bill User Payment"       ,"Completed"                ,"USD"       ,"-13.15"  ,"0.00"   ,"-13.15"  ,"arf4188@gmail.com"         ,"us-ebay-shiplabels16@ebay.com"             ,"13K211954S237184U"       ,""                                          ,"Non-Confirmed"         ,"ShipSvc:USPS Priority Mail                                                                            , Trk#:9405509699939076795674 , Postage:$13.15                                                                     , Ins:$0.00"        ,""              ,"0.00"                                                 ,""                                                               ,"0.00"                                     ,""                                                                                  ,""                      ,""               ,""                  ,"B-5PL26440A3749932A" ,"3817107758"                 ,""        ,"1"                ,""                                     ,"108.36"                     ,""                                                           ,""                           ,""                 ,""                            ,""                                                                                                     ,""                                                   ,"617-756-7842"                                                                      ,"ShipSvc:USPS Priority Mail                                                         
"07/10/2018" ,"07:39:35" ,"EDT"      ,"PayPal"               ,"Cancellation of Hold for Dispute Resolution" ,"Denied"                   ,"USD"       ,"1        ,178.01"  ,"0.00"    ,"1                          ,178.01"                                     ,"uscs-taylor@hotmail.com" ,"arf4188@gmail.com"                         ,"6S794444YV591211D"     ,""                                                                                                     ,"Non-Confirmed"              ,"ASUS ZenBook Pro UX501VW 15.6"" Laptop Intel Core i7 CPU 16 GB RAM 500 GB Storage" ,"263781285148"     ,""              ,""                                                     ,"0.00"                                                           ,""                                         ,""                                                                                  ,""                      ,""               ,"0W5946038K893723Y" ,""                    ,"EBAY_EMSCX0000810143954419" ,"1"       ,""                 ,"1                                     ,286.37"                      ,""                                                           ,""                           ,""                 ,""                            ,""                                                                                                     ,""                                                   ,""                                                                                  ,"ASUS ZenBook Pro UX501VW 15.6"" Laptop Intel Core i7 CPU 16 GB RAM 500 GB Storage" 
"07/10/2018" ,"07:39:39" ,"EDT"      ,"PayPal"               ,"Chargeback"                                  ,"Completed"                ,"USD"       ,"-1       ,213.50"  ,"0.00"    ,"-1                         ,213.50"                                     ,"arf4188@gmail.com"       ,""                                          ,"6EW68492XK0210336"     ,""                                                                                                     ,"Non-Confirmed"              ,""                                                                                  ,""                 ,""              ,""                                                     ,""                                                               ,""                                         ,""                                                                                  ,""                      ,""               ,"0W5946038K893723Y" ,""                    ,""                           ,""        ,""                 ,"72.87"                                ,""                           ,""                                                           ,""                           ,""                 ,""                            ,""                                                                                                     ,""                                                   ,""                                                                                  ,""                                                                                  
"07/16/2018" ,"02:04:06" ,"EDT"      ,"eBay Inc."            ,"PreApproved Payment Bill User Payment"       ,"Completed"                ,"USD"       ,"-8.06"   ,"0.00"   ,"-8.06"   ,"arf4188@gmail.com"         ,"US-eBay-EOM-Fees@ebay.com"                 ,"4E504205HD852892D"       ,""                                          ,"Non-Confirmed"         ,""                                                                                                     ,""                           ,"0.00"                                                                              ,""                 ,"0.00"          ,""                                                     ,""                                                               ,""                                         ,""                                                                                  ,"B-38J77262S55321311"   ,"3833733638"     ,""                  ,"1"                   ,""                           ,"64.81"   ,""                 ,""                                     ,""                           ,""                                                           ,""                           ,""                 ,""                            ,""                                                                                                     ,""                                                   ,""                                                                                  ,"Debit"                                                                             
"07/23/2018" ,"17:55:22" ,"EDT"      ,"Paul Ruggieri"        ,"General Payment"                             ,"Completed"                ,"USD"       ,"-210.00" ,"0.00"   ,"-210.00" ,"arf4188@gmail.com"         ,"Paulnsx@gmail.com"                         ,"58Y44483WU077010F"       ,""                                          ,"Non-Confirmed"         ,""                                                                                                     ,""                           ,""                                                                                  ,""                 ,""              ,""                                                     ,""                                                               ,""                                         ,""                                                                                  ,""                      ,""               ,""                  ,""                    ,""                           ,"-145.19" ,""                 ,""                                     ,""                           ,""                                                           ,""                           ,""                 ,""                            ,""                                                                                                     ,"Foxwoods Hotel for Erik and Alex"                   ,""                                                                                  ,"Debit"                                                                             
"07/23/2018" ,"17:55:22" ,"EDT"      ,""                     ,"Bank Deposit to PP Account "                 ,"Pending"                  ,"USD"       ,"145.19"  ,"0.00"   ,"145.19"  ,""                          ,"arf4188@gmail.com"                         ,"79H141049V4713804"       ,""                                          ,""                      ,""                                                                                                     ,""                           ,""                                                                                  ,""                 ,""              ,""                                                     ,""                                                               ,""                                         ,""                                                                                  ,"58Y44483WU077010F"     ,""               ,""                  ,""                    ,""                           ,"0.00"    ,""                 ,""                                     ,""                           ,""                                                           ,""                           ,""                 ,""                            ,""                                                                                                     ,""                                                   ,""                                                                                  ,"Credit"                                                                            
"07/28/2018" ,"21:38:11" ,"EDT"      ,"Brian Turner"         ,"eBay Auction Payment"                        ,"Completed"                ,"USD"       ,"82.20"   ,"-2.68"  ,"79.52"   ,"To get contact details     , please visit your Order details on MyeBay" ,"arf4188@gmail.com"       ,"54R598438L024064F"                         ,"Brian                  , Turner                                                                                                , 426 Chandelle Ct NE         , Salem                                                                              , OR                , 97301          , United States"                                        ,"Confirmed"                                                      ,"Microsoft Surface Book Docking Station"   ,"263833674707"                                                                      ,"7.20"                  ,"0.00"           ,"0.00"              ,""                    ,""                           ,""        ,""                 ,""                                     ,""                           ,"EBAY_EMSCX0000822459426816"                                 ,"1"                          ,"2231785371095319" ,"79.52"                       ,"426 Chandelle Ct NE"                                                                                  ,""                                                   ,"Salem"                                                                             ,"OR"                                                                                
"07/30/2018" ,"00:11:38" ,"EDT"      ,"eBay Inc Shipping"    ,"PreApproved Payment Bill User Payment"       ,"Completed"                ,"USD"       ,"-7.05"   ,"0.00"   ,"-7.05"   ,"arf4188@gmail.com"         ,"us-ebay-shiplabels15@ebay.com"             ,"65X217912R2458018"       ,""                                          ,"Non-Confirmed"         ,"Shipping label printed on eBay for shipping carrier USPS with tracking Number 9405509699938662100137" ,""                           ,"0.00"                                                                              ,""                 ,"0.00"          ,""                                                     ,""                                                               ,""                                         ,""                                                                                  ,"B-5PL26440A3749932A"   ,"3846963568"     ,""                  ,"1"                   ,""                           ,"72.47"   ,""                 ,""                                     ,""                           ,""                                                           ,""                           ,""                 ,"6177567842"                  ,"Shipping label printed on eBay for shipping carrier USPS with tracking Number 9405509699938662100137" ,""                                                   ,""                                                                                  ,"Debit"                                                                             
"08/13/2018" ,"08:37:31" ,"EDT"      ,"Eric Ford"            ,"General Payment"                             ,"Completed"                ,"USD"       ,"100.00"  ,"0.00"   ,"100.00"  ,"nemetsdoma@yahoo.com"      ,"arf4188@gmail.com"                         ,"9X567405N3442280V"       ,""                                          ,"Non-Confirmed"         ,""                                                                                                     ,""                           ,""                                                                                  ,""                 ,""              ,""                                                     ,""                                                               ,""                                         ,""                                                                                  ,""                      ,""               ,""                  ,""                    ,""                           ,"172.47"  ,""                 ,""                                     ,""                           ,""                                                           ,""                           ,""                 ,""                            ,""                                                                                                     ,"Test...I'll send the rest if this works - Dad"      ,""                                                                                  ,"Credit"                                                                            
"08/13/2018" ,"09:43:46" ,"EDT"      ,"Eric Ford"            ,"General Payment"                             ,"Completed"                ,"USD"       ,"650.00"  ,"0.00"   ,"650.00"  ,"nemetsdoma@yahoo.com"      ,"arf4188@gmail.com"                         ,"07H89993V6473054P"       ,""                                          ,"Non-Confirmed"         ,""                                                                                                     ,""                           ,""                                                                                  ,""                 ,""              ,""                                                     ,""                                                               ,""                                         ,""                                                                                  ,""                      ,""               ,""                  ,""                    ,""                           ,"822.47"  ,""                 ,""                                     ,""                           ,""                                                           ,""                           ,""                 ,""                            ,""                                                                                                     ,"For a total of $750...please send me a tally - Dad" ,""                                                                                  ,"Credit"                                                                            
"08/13/2018" ,"12:17:29" ,"EDT"      ,""                     ,"General Withdrawal"                          ,"Completed"                ,"USD"       ,"-750.00" ,"0.00"   ,"-750.00" ,"arf4188@gmail.com"         ,""                                          ,"4JF89281W6300994R"       ,""                                          ,""                      ,""                                                                                                     ,""                           ,""                                                                                  ,""                 ,""              ,""                                                     ,""                                                               ,""                                         ,""                                                                                  ,""                      ,""               ,""                  ,""                    ,""                           ,"72.47"   ,""                 ,""                                     ,""                           ,""                                                           ,""                           ,""                 ,""                            ,""                                                                                                     ,""                                                   ,""                                                                                  ,"Debit"                                                                             
"08/15/2018" ,"22:40:53" ,"EDT"      ,"eBay Inc."            ,"PreApproved Payment Bill User Payment"       ,"Completed"                ,"USD"       ,"-8.22"   ,"0.00"   ,"-8.22"   ,"arf4188@gmail.com"         ,"US-eBay-EOM-Fees@ebay.com"                 ,"96342144KP425094U"       ,""                                          ,"Non-Confirmed"         ,""                                                                                                     ,""                           ,"0.00"                                                                              ,""                 ,"0.00"          ,""                                                     ,""                                                               ,""                                         ,""                                                                                  ,"B-38J77262S55321311"   ,"3864831918"     ,""                  ,"1"                   ,""                           ,"64.25"   ,""                 ,""                                     ,""                           ,""                                                           ,""                           ,""                 ,""                            ,""                                                                                                     ,""                                                   ,""                                                                                  ,"Debit"                                                                             
"08/26/2018" ,"13:10:58" ,"EDT"      ,"Sara Burrows"         ,"General Payment"                             ,"Completed"                ,"USD"       ,"50.00"   ,"0.00"   ,"50.00"   ,"saraanneburrows@yahoo.com" ,"arf4188@gmail.com"                         ,"98E15585LT578892N"       ,""                                          ,"Non-Confirmed"         ,""                                                                                                     ,""                           ,""                                                                                  ,""                 ,""              ,""                                                     ,""                                                               ,""                                         ,""                                                                                  ,""                      ,""               ,""                  ,""                    ,""                           ,"114.25"  ,""                 ,""                                     ,""                           ,""                                                           ,""                           ,""                 ,""                            ,""                                                                                                     ,"Scaling hosting up and down"                        ,""                                                                                  ,"Credit"                                                                            
